Descriptives round 2
…
Theres three noticable spikes: the election; the travel ban; and DACA.

md %>% 
  group_by(date) %>% 
  summarise(n = n()) %>% 
  arrange(-n)

## # A tibble: 448 x 2
##    date           n
##    <date>     <int>
##  1 2017-01-31   121
##  2 2017-02-01   100
##  3 2017-01-30    98
##  4 2016-11-10    87
##  5 2017-02-02    87
##  6 2016-11-09    85
##  7 2017-01-29    78
##  8 2017-02-07    72
##  9 2017-02-03    70
## 10 2017-02-05    66
## # ... with 438 more rows
…
