Descriptives of metadata
…
md$date <- dmy(md$date_char)

# this is not that useful
# but note 9/11 coverage 
md %>% group_by(date, pubtitle) %>%
  summarise(Number = n()) %>% 
  arrange(-Number) %>% filter(Number > 5)

## # A tibble: 26 x 3
## # Groups:   date [25]
##          date                     pubtitle Number
##        <date>                        <chr>  <int>
##  1 2016-11-09 Wall Street Journal (Online)     11
##  2 2017-02-05               New York Times      8
##  3 2008-08-14          Wall Street Journal      7
##  4 2017-01-28               New York Times      7
##  5 2017-01-30 Wall Street Journal (Online)      7
##  6 2017-02-24               New York Times      7
##  7 2008-09-21               New York Times      6
##  8 2008-09-28               New York Times      6
##  9 2011-11-20               New York Times      6
## 10 2012-11-09 Wall Street Journal (Online)      6
## # ... with 16 more rows
…
